…
We do the same for 2015 too creating `rainfall_2015`



Application to the Weather Dataset (cont.)
====================================


```r
rainfall_1987
```

```
# A tibble: 184 x 2
   date       rainfall
   <date>        <dbl>
 1 1987-05-01      3.1
 2 1987-05-02      0.1
 3 1987-05-03      0  
 4 1987-05-04      0  
 5 1987-05-05      0  
 6 1987-05-06      0  
 7 1987-05-07      0  
 8 1987-05-08      0  
 9 1987-05-09      0  
10 1987-05-10      0  
# ... with 174 more rows
```

***


```r
rainfall_2015
```

```
# A tibble: 184 x 2
   date       rainfall
   <date>        <dbl>
 1 2015-05-01      3.4
 2 2015-05-02     13.2
 3 2015-05-03      0.2
 4 2015-05-04     12.8
 5 2015-05-05      2.2
 6 2015-05-06      0  
 7 2015-05-07      1.4
 8 2015-05-08      4.4
 9 2015-05-09      0  
10 2015-05-10      0.2
# ... with 174 more rows
```
…
