…
Introduction
====================================

* `arrange()` orders observations by one or more variables in **ascending** order
* The observations are ordered by the first column, then ties are settled by the second, etc.


```r
# order by class, break ties with year
arrange(mpg, class, year)
```

```
# A tibble: 234 x 11
   manufacturer model displ  year   cyl trans drv     cty   hwy fl    class
   <chr>        <chr> <dbl> <int> <int> <chr> <chr> <int> <int> <chr> <chr>
 1 chevrolet    corv~   5.7  1999     8 manu~ r        16    26 p     2sea~
 2 chevrolet    corv~   5.7  1999     8 auto~ r        15    23 p     2sea~
 3 chevrolet    corv~   6.2  2008     8 manu~ r        16    26 p     2sea~
 4 chevrolet    corv~   6.2  2008     8 auto~ r        15    25 p     2sea~
 5 chevrolet    corv~   7    2008     8 manu~ r        15    24 p     2sea~
 6 audi         a4      1.8  1999     4 auto~ f        18    29 p     comp~
 7 audi         a4      1.8  1999     4 manu~ f        21    29 p     comp~
 8 audi         a4      2.8  1999     6 auto~ f        16    26 p     comp~
 9 audi         a4      2.8  1999     6 manu~ f        18    26 p     comp~
10 audi         a4 q~   1.8  1999     4 manu~ 4        18    26 p     comp~
# ... with 224 more rows
```

Descending Order
====================================

* You can wrap a variable in `desc()` to use descending order for that column


```r
arrange(mpg, class, desc(year))
```

```
# A tibble: 234 x 11
   manufacturer model displ  year   cyl trans drv     cty   hwy fl    class
   <chr>        <chr> <dbl> <int> <int> <chr> <chr> <int> <int> <chr> <chr>
 1 chevrolet    corv~   6.2  2008     8 manu~ r        16    26 p     2sea~
 2 chevrolet    corv~   6.2  2008     8 auto~ r        15    25 p     2sea~
 3 chevrolet    corv~   7    2008     8 manu~ r        15    24 p     2sea~
 4 chevrolet    corv~   5.7  1999     8 manu~ r        16    26 p     2sea~
 5 chevrolet    corv~   5.7  1999     8 auto~ r        15    23 p     2sea~
 6 audi         a4      2    2008     4 manu~ f        20    31 p     comp~
 7 audi         a4      2    2008     4 auto~ f        21    30 p     comp~
 8 audi         a4      3.1  2008     6 auto~ f        18    27 p     comp~
 9 audi         a4 q~   2    2008     4 manu~ 4        20    28 p     comp~
10 audi         a4 q~   2    2008     4 auto~ 4        19    27 p     comp~
# ... with 224 more rows
```
…
* It is not unusual to get be given a dataset with hundreds or even thousands of columns
* In this case, you may want to narrow this down to variables you actually care about





```r
select(iris, Petal.Length, Petal.Width, Species)
```

```
# A tibble: 150 x 3
   Petal.Length Petal.Width Species
          <dbl>       <dbl> <fct>  
 1          1.4         0.2 setosa 
 2          1.4         0.2 setosa 
 3          1.3         0.2 setosa 
 4          1.5         0.2 setosa 
 5          1.4         0.2 setosa 
 6          1.7         0.4 setosa 
 7          1.4         0.3 setosa 
 8          1.5         0.2 setosa 
 9          1.4         0.2 setosa 
10          1.5         0.1 setosa 
# ... with 140 more rows
```

Dropping Columns
====================================

* You can get rid of columns by prefixing their name with a `-` symbol


```r
select(iris, -Species)
```

```
# A tibble: 150 x 4
   Sepal.Length Sepal.Width Petal.Length Petal.Width
          <dbl>       <dbl>        <dbl>       <dbl>
 1          5.1         3.5          1.4         0.2
 2          4.9         3            1.4         0.2
 3          4.7         3.2          1.3         0.2
 4          4.6         3.1          1.5         0.2
 5          5           3.6          1.4         0.2
 6          5.4         3.9          1.7         0.4
 7          4.6         3.4          1.4         0.3
 8          5           3.4          1.5         0.2
 9          4.4         2.9          1.4         0.2
10          4.9         3.1          1.5         0.1
# ... with 140 more rows
```

Selecting Ranges
====================================

* You can use the `:` operator to select or remove columns in a range (inclusive)


```r
select(iris, Sepal.Length:Petal.Length)
```

```
# A tibble: 150 x 3
   Sepal.Length Sepal.Width Petal.Length
          <dbl>       <dbl>        <dbl>
 1          5.1         3.5          1.4
 2          4.9         3            1.4
 3          4.7         3.2          1.3
 4          4.6         3.1          1.5
 5          5           3.6          1.4
 6          5.4         3.9          1.7
 7          4.6         3.4          1.4
 8          5           3.4          1.5
 9          4.4         2.9          1.4
10          4.9         3.1          1.5
# ... with 140 more rows
```

Selecting Ranges (cont.)
====================================

* This also works with `-`


```r
select(iris, -(Sepal.Length:Petal.Length))
```

```
# A tibble: 150 x 2
   Petal.Width Species
         <dbl> <fct>  
 1         0.2 setosa 
 2         0.2 setosa 
 3         0.2 setosa 
 4         0.2 setosa 
 5         0.2 setosa 
 6         0.4 setosa 
 7         0.3 setosa 
 8         0.2 setosa 
 9         0.2 setosa 
10         0.1 setosa 
# ... with 140 more rows
```
…
Renaming Columns
====================================

* `select()` can be used to rename columns but this can be more easily achieved using `rename()`


```r
rename(iris, length_of_sepal = Sepal.Length, width_of_sepal = Sepal.Width)
```

```
# A tibble: 150 x 5
   length_of_sepal width_of_sepal Petal.Length Petal.Width Species
             <dbl>          <dbl>        <dbl>       <dbl> <fct>  
 1             5.1            3.5          1.4         0.2 setosa 
 2             4.9            3            1.4         0.2 setosa 
 3             4.7            3.2          1.3         0.2 setosa 
 4             4.6            3.1          1.5         0.2 setosa 
 5             5              3.6          1.4         0.2 setosa 
 6             5.4            3.9          1.7         0.4 setosa 
 7             4.6            3.4          1.4         0.3 setosa 
 8             5              3.4          1.5         0.2 setosa 
 9             4.4            2.9          1.4         0.2 setosa 
10             4.9            3.1          1.5         0.1 setosa 
# ... with 140 more rows
```
…
