An Introduction to the Tidyverse | Session Two
…
When using the read_csv() function, you are outputted a message containing the column names and types

Warning: Don't confuse readr's read_csv() function with the built-in read.csv() function

Importing CSV files (cont.)

people_df

# A tibble: 1,192 x 6
    earn height sex       ed   age race    
   <dbl>  <dbl> <chr>  <dbl> <dbl> <chr>   
 1 50000   74.4 male      16    45 white   
 2 60000   65.5 female    16    58 white   
 3 30000   63.6 female    16    29 white   
 4 50000   63.1 female    16    91 other   
 5 51000   63.4 female    17    39 white   
 6  9000   64.4 female    15    26 white   
 7 29000   61.7 female    12    49 white   
 8 32000   72.7 male      17    46 white   
 9  2000   72.0 male      15    21 hispanic
10 27000   72.2 male      12    26 white   
# ... with 1,182 more rows
…
Parsed with column specification:
cols(
  earn = col_double(),
  height = col_double(),
  sex = col_character(),
  ed = col_double(),
  age = col_double(),
  race = col_character()
)

Importing fixed-width files (cont.)

people

# A tibble: 1,192 x 6
    earn height sex       ed   age race    
   <dbl>  <dbl> <chr>  <dbl> <dbl> <chr>   
 1 50000   74.4 male      16    45 white   
 2 60000   65.5 female    16    58 white   
 3 30000   63.6 female    16    29 white   
 4 50000   63.1 female    16    91 other   
 5 51000   63.4 female    17    39 white   
 6  9000   64.4 female    15    26 white   
 7 29000   61.7 female    12    49 white   
 8 32000   72.7 male      17    46 white   
 9  2000   72.0 male      15    21 hispanic
10 27000   72.2 male      12    26 white   
# ... with 1,182 more rows
…
